^C:\USERS\USER\SOURCE\REPOS\THREAD2\THREAD1.CPP|C:\USERS\USER\SOURCE\REPOS\THREAD2\THREAD2.CPP
C:\USERS\USER\SOURCE\REPOS\THREAD2\X64\DEBUG\VC143.PDB
C:\USERS\USER\SOURCE\REPOS\THREAD2\X64\DEBUG\VC143.IDB
C:\USERS\USER\SOURCE\REPOS\THREAD2\X64\DEBUG\THREAD2.OBJ
C:\USERS\USER\SOURCE\REPOS\THREAD2\X64\DEBUG\THREAD1.OBJ
^C:\USERS\USER\SOURCE\REPOS\THREAD2\THREAD1.CPP
C:\USERS\USER\SOURCE\REPOS\THREAD2\X64\DEBUG\VC143.PDB
^C:\USERS\USER\SOURCE\REPOS\THREAD2\THREAD2.CPP
C:\USERS\USER\SOURCE\REPOS\THREAD2\X64\DEBUG\VC143.PDB
