^C:\USERS\USER\SOURCE\REPOS\THREAD2\X64\DEBUG\THREAD2.OBJ
/OUT:"C:\USERS\USER\SOURCE\REPOS\THREAD2\X64\DEBUG\THREAD2.EXE" /INCREMENTAL /ILK:"X64\DEBUG\THREAD2.ILK" /NOLOGO KERNEL32.LIB USER32.LIB GDI32.LIB WINSPOOL.LIB COMDLG32.LIB ADVAPI32.LIB SHELL32.LIB OLE32.LIB OLEAUT32.LIB UUID.LIB ODBC32.LIB ODBCCP32.LIB /MANIFEST /MANIFESTUAC:"level='asInvoker' uiAccess='false'" /manifest:embed /DEBUG /PDB:"C:\USERS\USER\SOURCE\REPOS\THREAD2\X64\DEBUG\THREAD2.PDB" /SUBSYSTEM:CONSOLE /TLBID:1 /DYNAMICBASE /NXCOMPAT /IMPLIB:"C:\USERS\USER\SOURCE\REPOS\THREAD2\X64\DEBUG\THREAD2.LIB" /MACHINE:X64 X64\DEBUG\THREAD2.OBJ
^C:\USERS\USER\SOURCE\REPOS\THREAD2\X64\DEBUG\THREAD1.OBJ|C:\USERS\USER\SOURCE\REPOS\THREAD2\X64\DEBUG\THREAD2.OBJ
/OUT:"C:\USERS\USER\SOURCE\REPOS\THREAD2\X64\DEBUG\THREAD2.EXE" /INCREMENTAL /ILK:"X64\DEBUG\THREAD2.ILK" /NOLOGO KERNEL32.LIB USER32.LIB GDI32.LIB WINSPOOL.LIB COMDLG32.LIB ADVAPI32.LIB SHELL32.LIB OLE32.LIB OLEAUT32.LIB UUID.LIB ODBC32.LIB ODBCCP32.LIB /MANIFEST /MANIFESTUAC:"level='asInvoker' uiAccess='false'" /manifest:embed /DEBUG /PDB:"C:\USERS\USER\SOURCE\REPOS\THREAD2\X64\DEBUG\THREAD2.PDB" /SUBSYSTEM:CONSOLE /TLBID:1 /DYNAMICBASE /NXCOMPAT /IMPLIB:"C:\USERS\USER\SOURCE\REPOS\THREAD2\X64\DEBUG\THREAD2.LIB" /MACHINE:X64 X64\DEBUG\THREAD1.OBJ
X64\DEBUG\THREAD2.OBJ
